
PLAY [install] *****************************************************************

TASK [Gathering Facts] *********************************************************
ok: [192.168.200.132]

TASK [config_nginx : inst_nginx] ***********************************************
ok: [192.168.200.132]

TASK [config_nginx : Déploiement page HTML] ************************************
ok: [192.168.200.132]

PLAY RECAP *********************************************************************
192.168.200.132            : ok=3    changed=0    unreachable=0    failed=0    skipped=0    rescued=0    ignored=0   

